…
When you click the **Knit** button a document will be generated that
includes both content as well as the output of any embedded R code
chunks within the document. You can embed an R code chunk like this:

``` r
gapminder
```

    ## # A tibble: 1,704 × 6
    ##    country     continent  year lifeExp      pop gdpPercap
    ##    <fct>       <fct>     <int>   <dbl>    <int>     <dbl>
    ##  1 Afghanistan Asia       1952    28.8  8425333      779.
    ##  2 Afghanistan Asia       1957    30.3  9240934      821.
    ##  3 Afghanistan Asia       1962    32.0 10267083      853.
    ##  4 Afghanistan Asia       1967    34.0 11537966      836.
    ##  5 Afghanistan Asia       1972    36.1 13079460      740.
    ##  6 Afghanistan Asia       1977    38.4 14880372      786.
    ##  7 Afghanistan Asia       1982    39.9 12881816      978.
    ##  8 Afghanistan Asia       1987    40.8 13867957      852.
    ##  9 Afghanistan Asia       1992    41.7 16317921      649.
    ## 10 Afghanistan Asia       1997    41.8 22227415      635.
    ## # ℹ 1,694 more rows
…
### 2.6 Make Your First Figure

``` r
library(gapminder)
gapminder
```

    ## # A tibble: 1,704 × 6
    ##    country     continent  year lifeExp      pop gdpPercap
    ##    <fct>       <fct>     <int>   <dbl>    <int>     <dbl>
    ##  1 Afghanistan Asia       1952    28.8  8425333      779.
    ##  2 Afghanistan Asia       1957    30.3  9240934      821.
    ##  3 Afghanistan Asia       1962    32.0 10267083      853.
    ##  4 Afghanistan Asia       1967    34.0 11537966      836.
    ##  5 Afghanistan Asia       1972    36.1 13079460      740.
    ##  6 Afghanistan Asia       1977    38.4 14880372      786.
    ##  7 Afghanistan Asia       1982    39.9 12881816      978.
    ##  8 Afghanistan Asia       1987    40.8 13867957      852.
    ##  9 Afghanistan Asia       1992    41.7 16317921      649.
    ## 10 Afghanistan Asia       1997    41.8 22227415      635.
    ## # ℹ 1,694 more rows
…
## Make a Plot

``` r
library(gapminder)
```

``` r
gapminder
```

    ## # A tibble: 1,704 × 6
    ##    country     continent  year lifeExp      pop gdpPercap
    ##    <fct>       <fct>     <int>   <dbl>    <int>     <dbl>
    ##  1 Afghanistan Asia       1952    28.8  8425333      779.
    ##  2 Afghanistan Asia       1957    30.3  9240934      821.
    ##  3 Afghanistan Asia       1962    32.0 10267083      853.
    ##  4 Afghanistan Asia       1967    34.0 11537966      836.
    ##  5 Afghanistan Asia       1972    36.1 13079460      740.
    ##  6 Afghanistan Asia       1977    38.4 14880372      786.
    ##  7 Afghanistan Asia       1982    39.9 12881816      978.
    ##  8 Afghanistan Asia       1987    40.8 13867957      852.
    ##  9 Afghanistan Asia       1992    41.7 16317921      649.
    ## 10 Afghanistan Asia       1997    41.8 22227415      635.
    ## # ℹ 1,694 more rows
…
``` r
oecd_sum
```

    ## # A tibble: 57 × 5
    ## # Groups:   year [57]
    ##     year other   usa  diff hi_lo
    ##    <int> <dbl> <dbl> <dbl> <chr>
    ##  1  1960  68.6  69.9 1.30  Below
    ##  2  1961  69.2  70.4 1.20  Below
    ##  3  1962  68.9  70.2 1.30  Below
    ##  4  1963  69.1  70   0.900 Below
    ##  5  1964  69.5  70.3 0.800 Below
    ##  6  1965  69.6  70.3 0.700 Below
    ##  7  1966  69.9  70.3 0.400 Below
    ##  8  1967  70.1  70.7 0.600 Below
    ##  9  1968  70.1  70.4 0.300 Below
    ## 10  1969  70.1  70.6 0.5   Below
    ## # ℹ 47 more rows
…
